[gd_scene load_steps=5 format=2]

[ext_resource path="res://scenes/TestLevel/MafiaGuyShooting/MafiaShooting.gd" type="Script" id=1]
[ext_resource path="res://scenes/TestLevel/Obstacle2/Obstacle2.tscn" type="PackedScene" id=2]
[ext_resource path="res://Sprite_sheets/COLOURED-sprite-sheet.png" type="Texture" id=3]

[sub_resource type="RectangleShape2D" id=1]

custom_solver_bias = 0.0
extents = Vector2( 8.9487, 16.6646 )

[node name="Obstacle3" type="Area2D" index="0" groups=[
"obstacle",
]]

input_pickable = true
gravity_vec = Vector2( 0, 1 )
gravity = 98.0
linear_damp = 0.1
angular_damp = 1.0
audio_bus_override = false
audio_bus_name = "Master"
script = ExtResource( 1 )
_sections_unfolded = [ "Collision", "Transform", "Z Index" ]
__meta__ = {
"_edit_vertical_guides_": [ 308.383 ]
}
decreaseSpeedBy = 25
bulletDecSpeed = 15
bulletSpeed = 45
shootFrequency = 0.8
direction = -1
bulletScene = ExtResource( 2 )
startShootRange = 500.0

[node name="CollisionShape2D" type="CollisionShape2D" parent="." index="0"]

position = Vector2( -5.5744, 0.214645 )
shape = SubResource( 1 )
_sections_unfolded = [ "Transform" ]
__meta__ = {
"_edit_lock_": true
}

[node name="Sprite" type="Sprite" parent="." index="1"]

scale = Vector2( -1, 1 )
z_as_relative = false
texture = ExtResource( 3 )
region_enabled = true
region_rect = Rect2( 91, 9, 34, 34 )
_sections_unfolded = [ "Transform", "Z Index" ]
__meta__ = {
"_edit_lock_": true
}

[node name="shootpoint" type="Node2D" parent="." index="2"]

position = Vector2( 13.3441, 0.21463 )
_sections_unfolded = [ "Transform", "Z Index" ]
__meta__ = {
"_edit_lock_": true
}

[connection signal="body_entered" from="." to="." method="_on_Obstacle3_body_entered"]


