[gd_scene load_steps=4 format=2]

[ext_resource path="res://scenes/TestLevel/Obstacle1/Obstacle1.gd" type="Script" id=1]
[ext_resource path="res://Sprite_sheets/COLOURED-sprite-sheet.png" type="Texture" id=2]

[sub_resource type="RectangleShape2D" id=1]

custom_solver_bias = 0.0
extents = Vector2( 10, 10.9901 )

[node name="Obstacle1" type="Area2D" groups=[
"obstacle",
]]

input_pickable = true
gravity_vec = Vector2( 0, 1 )
gravity = 98.0
linear_damp = 0.1
angular_damp = 1.0
audio_bus_override = false
audio_bus_name = "Master"
script = ExtResource( 1 )
_sections_unfolded = [ "Collision", "Transform", "Z Index" ]
decreaseSpeedBy = 10
sound = 0

[node name="CollisionShape2D" type="CollisionShape2D" parent="." index="0"]

position = Vector2( 0, 0.214639 )
shape = SubResource( 1 )
__meta__ = {
"_edit_lock_": true
}

[node name="Sprite" type="Sprite" parent="." index="1"]

z_as_relative = false
texture = ExtResource( 2 )
region_enabled = true
region_rect = Rect2( 47, 83, 18, 23 )
_sections_unfolded = [ "Z Index" ]
__meta__ = {
"_edit_lock_": true
}

[connection signal="body_entered" from="." to="." method="_on_Obstacle1_body_entered"]


