[gd_resource type="Resource" load_steps=3 format=2]

[ext_resource path="res://scenes/TestLevel/Obstacle1/Obstacle1.tscn" type="PackedScene" id=1]
[ext_resource path="res://Class/TileSpawnable.gd" type="Script" id=2]

[resource]

script = ExtResource( 2 )
object = ExtResource( 1 )
ratioNumber = 1.5
doesTakeBothLanes = null

