[gd_resource type="Resource" load_steps=3 format=2]

[ext_resource path="res://scenes/TestLevel/ShieldPickup/ShieldPickup.tscn" type="PackedScene" id=1]
[ext_resource path="res://Class/TileSpawnable.gd" type="Script" id=2]

[resource]

script = ExtResource( 2 )
object = ExtResource( 1 )
ratioNumber = 0.6
doesTakeBothLanes = true

