[gd_scene load_steps=3 format=2]

[ext_resource path="res://scenes/TestLevel/Buildings/buildingDelete.gd" type="Script" id=1]
[ext_resource path="res://Sprite_sheets/CityBackground_ByRobyn.png" type="Texture" id=2]

[node name="building4" type="Node2D"]

script = ExtResource( 1 )
_sections_unfolded = [ "Material", "Visibility", "Z Index" ]

[node name="Sprite" type="Sprite" parent="." index="0"]

position = Vector2( -70.2711, -66.493 )
texture = ExtResource( 2 )
region_enabled = true
region_rect = Rect2( 447, 829, 142, 133 )
_sections_unfolded = [ "Region", "Transform", "Z Index" ]


