[gd_scene load_steps=4 format=2]

[ext_resource path="res://scenes/TestLevel/Obstacle2/Obstacle2.gd" type="Script" id=1]
[ext_resource path="res://Sprite_sheets/COLOURED-sprite-sheet.png" type="Texture" id=2]

[sub_resource type="RectangleShape2D" id=1]

custom_solver_bias = 0.0
extents = Vector2( 4.50375, 3.04719 )

[node name="Obstacle2" type="Area2D" groups=[
"obstacle",
]]

input_pickable = true
gravity_vec = Vector2( 0, 1 )
gravity = 98.0
linear_damp = 0.1
angular_damp = 1.0
audio_bus_override = false
audio_bus_name = "Master"
script = ExtResource( 1 )
_sections_unfolded = [ "Collision", "Pickable", "Transform", "Z Index" ]
decreaseSpeedBy = 10
bulletSpeed = 40
direction = -1

[node name="CollisionShape2D" type="CollisionShape2D" parent="." index="0"]

shape = SubResource( 1 )
__meta__ = {
"_edit_lock_": true
}

[node name="Sprite" type="Sprite" parent="." index="1"]

scale = Vector2( -1, 1 )
texture = ExtResource( 2 )
region_enabled = true
region_rect = Rect2( 99, 63, 9, 5 )
_sections_unfolded = [ "Region", "Transform", "Z Index" ]
__meta__ = {
"_edit_lock_": true
}

[connection signal="body_entered" from="." to="." method="_on_Obstacle2_body_entered"]

[connection signal="visibility_changed" from="Sprite" to="." method="_on_Sprite_visibility_changed"]


